^C:\USERS\DEOME\DESKTOP\CP\B1A29A4F-GR11-REPO\PROJECT\BJSIM-VISUAL\BJSIM-VISUAL\FILEANDSORTFUNCTIONS.C
/c /I"C:\PROGRAM FILES (X86)\VISUAL LEAK DETECTOR\INCLUDE" /ZI /JMC /nologo /W3 /WX- /diagnostics:classic /sdl /Od /D _DEBUG /D _CONSOLE /D _CRT_SECURE_NO_WARNINGS /D _UNICODE /D UNICODE /Gm- /EHsc /RTC1 /MDd /GS /fp:precise /permissive- /Zc:wchar_t /Zc:forScope /Zc:inline /Fo"X64\DEBUG\\" /Fd"X64\DEBUG\VC141.PDB" /Gd /TC /FC C:\USERS\DEOME\DESKTOP\CP\B1A29A4F-GR11-REPO\PROJECT\BJSIM-VISUAL\BJSIM-VISUAL\FILEANDSORTFUNCTIONS.C
^C:\USERS\DEOME\DESKTOP\CP\B1A29A4F-GR11-REPO\PROJECT\BJSIM-VISUAL\BJSIM-VISUAL\MAIN.C
/c /I"C:\PROGRAM FILES (X86)\VISUAL LEAK DETECTOR\INCLUDE" /ZI /JMC /nologo /W3 /WX- /diagnostics:classic /sdl /Od /D _DEBUG /D _CONSOLE /D _CRT_SECURE_NO_WARNINGS /D _UNICODE /D UNICODE /Gm- /EHsc /RTC1 /MDd /GS /fp:precise /permissive- /Zc:wchar_t /Zc:forScope /Zc:inline /Fo"X64\DEBUG\\" /Fd"X64\DEBUG\VC141.PDB" /Gd /TC /FC C:\USERS\DEOME\DESKTOP\CP\B1A29A4F-GR11-REPO\PROJECT\BJSIM-VISUAL\BJSIM-VISUAL\MAIN.C
^C:\USERS\DEOME\DESKTOP\CP\B1A29A4F-GR11-REPO\PROJECT\BJSIM-VISUAL\BJSIM-VISUAL\MEMORYDELETION.C
/c /I"C:\PROGRAM FILES (X86)\VISUAL LEAK DETECTOR\INCLUDE" /ZI /JMC /nologo /W3 /WX- /diagnostics:classic /sdl /Od /D _DEBUG /D _CONSOLE /D _CRT_SECURE_NO_WARNINGS /D _UNICODE /D UNICODE /Gm- /EHsc /RTC1 /MDd /GS /fp:precise /permissive- /Zc:wchar_t /Zc:forScope /Zc:inline /Fo"X64\DEBUG\\" /Fd"X64\DEBUG\VC141.PDB" /Gd /TC /FC C:\USERS\DEOME\DESKTOP\CP\B1A29A4F-GR11-REPO\PROJECT\BJSIM-VISUAL\BJSIM-VISUAL\MEMORYDELETION.C
^C:\USERS\DEOME\DESKTOP\CP\B1A29A4F-GR11-REPO\PROJECT\BJSIM-VISUAL\BJSIM-VISUAL\STRUCTUREOPERATIONS.C
/c /I"C:\PROGRAM FILES (X86)\VISUAL LEAK DETECTOR\INCLUDE" /ZI /JMC /nologo /W3 /WX- /diagnostics:classic /sdl /Od /D _DEBUG /D _CONSOLE /D _CRT_SECURE_NO_WARNINGS /D _UNICODE /D UNICODE /Gm- /EHsc /RTC1 /MDd /GS /fp:precise /permissive- /Zc:wchar_t /Zc:forScope /Zc:inline /Fo"X64\DEBUG\\" /Fd"X64\DEBUG\VC141.PDB" /Gd /TC /FC C:\USERS\DEOME\DESKTOP\CP\B1A29A4F-GR11-REPO\PROJECT\BJSIM-VISUAL\BJSIM-VISUAL\STRUCTUREOPERATIONS.C
